…
# This is our url
my_url <- 
  "https://en.wikipedia.org/wiki/List_of_academic_publishers_by_preprint_policy"

Now to get the table: we use read_html() to get the entire html content; html_node() extracts the first table; then html_table() parses that element into an R data.frame that is easy to work with.

my_table <- 
  my_url |> 
  rvest::read_html() |>
  rvest::html_node('table') |> 
  rvest::html_table()

my_table

## # A tibble: 69 × 5
##    Publisher                                      Restr…¹ Restr…² Restr…³ Source
##    <chr>                                          <chr>   <chr>   <chr>   <chr> 
##  1 Publisher                                      Locati… Version License Source
##  2 American Association for the Advancement of S… Not-fo… Unrest… Unrest… [2]   
##  3 American Association for Cancer Research       Unrest… Must n… Unrest… [3]   
##  4 American Association for Physics in Medicine   Non-co… Unrest… Unrest… [4]   
##  5 American Chemical Society                      Unrest… Unrest… Unrest… [5]   
##  6 Association for Computing Machinery            Non-co… Unrest… Unrest… [6]   
##  7 American Geophysical Union                     Unrest… Unrest… Unrest… [7]   
##  8 American Heart Association                     Unrest… Versio… Unrest… [8]   
##  9 American Institute of Physics                  Unrest… Unrest… Unrest… [9]   
## 10 American Institute of Aeronautics and Astrona… Unrest… Unrest… Unrest… [10]  
## # … with 59 more rows, and abbreviated variable names ¹​Restrictions,
## #   ²​Restrictions, ³​Restrictions
…
fixed_table <- 
  my_table |> 
  rlang::set_names(my_table[1,]) |>
  dplyr::slice(-1)

Finally, I don’t need the source column since I didn’t scrape the links for those and I’m not too worried about verifying these data anyway. I’ll make the names lower snake-case with janitor::clean_names() since I’m OCD.

preprint_policy <- 
  fixed_table |> 
  select(-Source) |> 
  janitor::clean_names() |> 
  print()

## # A tibble: 68 × 4
##    publisher                                           location  version license
##    <chr>                                               <chr>     <chr>   <chr>  
##  1 American Association for the Advancement of Science Not-for-… Unrest… Unrest…
##  2 American Association for Cancer Research            Unrestri… Must n… Unrest…
##  3 American Association for Physics in Medicine        Non-comm… Unrest… Unrest…
##  4 American Chemical Society                           Unrestri… Unrest… Unrest…
##  5 Association for Computing Machinery                 Non-comm… Unrest… Unrest…
##  6 American Geophysical Union                          Unrestri… Unrest… Unrest…
##  7 American Heart Association                          Unrestri… Versio… Unrest…
##  8 American Institute of Physics                       Unrestri… Unrest… Unrest…
##  9 American Institute of Aeronautics and Astronautics  Unrestri… Unrest… Unrest…
## 10 American Physical Society                           Unrestri… Unrest… Unrest…
## # … with 58 more rows
…
